{
  "success": true,
  "code": 0,
  "data": {
    "pageSize": 100,
    "totalCount": 929,
    "totalPage": 10,
    "currentPage": 1,
    "resultList": [
      {
        "id": 1618003458,
        "symbol": "SIREN_USDT",
        "positionType": 2,
        "positionValue": 97.5348,
        "funding": 0.0011704176,
        "rate": 1.2e-05,
        "settleTime": 1775034000000
      },
      {
        "id": 1617643683,
        "symbol": "SIREN_USDT",
        "positionType": 2,
        "positionValue": 85.8656,
        "funding": 0.0010303872,
        "rate": 1.2e-05,
        "settleTime": 1775026800000
      },
      {
        "id": 1616845241,
        "symbol": "SIREN_USDT",
        "positionType": 2,
        "positionValue": 499.6628,
        "funding": 0.1364079444,
        "rate": 0.000273,
        "settleTime": 1774976400000
      },
      {
        "id": 1615350675,
        "symbol": "SIREN_USDT",
        "positionType": 2,
        "positionValue": 729.3617,
        "funding": -0.0663719147,
        "rate": -9.1e-05,
        "settleTime": 1774908000000
      },
      {
        "id": 1615336422,
        "symbol": "SIREN_USDT",
        "positionType": 2,
        "positionValue": 487.2,
        "funding": -0.0053592,
        "rate": -1.1e-05,
        "settleTime": 1774904400000
      },
      {
        "id": 1615190819,
        "symbol": "SIREN_USDT",
        "positionType": 1,
        "positionValue": 1988.2912,
        "funding": 0.3300563392,
        "rate": -0.000166,
        "settleTime": 1774900800000
      },
      {
        "id": 1615164492,
        "symbol": "SIREN_USDT",
        "positionType": 1,
        "positionValue": 978.8667,
        "funding": 0.3151950774,
        "rate": -0.000322,
        "settleTime": 1774897200000
      },
      {
        "id": 1614893365,
        "symbol": "SIREN_USDT",
        "positionType": 1,
        "positionValue": 379.0116,
        "funding": 0.0655690068,
        "rate": -0.000173,
        "settleTime": 1774886400000
      },
      {
        "id": 1614761416,
        "symbol": "SIREN_USDT",
        "positionType": 1,
        "positionValue": 1420.96,
        "funding": 0.28277104,
        "rate": -0.000199,
        "settleTime": 1774879200000
      },
      {
        "id": 1614602542,
        "symbol": "SIREN_USDT",
        "positionType": 2,
        "positionValue": 1177.4919,
        "funding": -0.4380269868,
        "rate": -0.000372,
        "settleTime": 1774872000000
      },
      {
        "id": 1614576457,
        "symbol": "SIREN_USDT",
        "positionType": 2,
        "positionValue": 915.9426,
        "funding": -0.4277451942,
        "rate": -0.000467,
        "settleTime": 1774868400000
      },
      {
        "id": 1614548570,
        "symbol": "SIREN_USDT",
        "positionType": 1,
        "positionValue": 17.495,
        "funding": 0.008869965,
        "rate": -0.000507,
        "settleTime": 1774861200000
      },
      {
        "id": 1612974172,
        "symbol": "SIREN_USDT",
        "positionType": 2,
        "positionValue": 989.4516,
        "funding": -0.4739473164,
        "rate": -0.000479,
        "settleTime": 1774792800000
      },
      {
        "id": 1611019679,
        "symbol": "C_USDT",
        "positionType": 1,
        "positionValue": 3.412,
        "funding": 0.006417972,
        "rate": -0.001881,
        "settleTime": 1774692000000
      },
      {
        "id": 1611002497,
        "symbol": "C_USDT",
        "positionType": 2,
        "positionValue": 499.7487,
        "funding": -0.6191886393,
        "rate": -0.001239,
        "settleTime": 1774688400000
      },
      {
        "id": 1611000747,
        "symbol": "SIREN_USDT",
        "positionType": 2,
        "positionValue": 481,
        "funding": -0.252525,
        "rate": -0.000525,
        "settleTime": 1774688400000
      },
      {
        "id": 1609824255,
        "symbol": "SIREN_USDT",
        "positionType": 1,
        "positionValue": 272.2645,
        "funding": -0.003267174,
        "rate": 1.2e-05,
        "settleTime": 1774630800000
      },
      {
        "id": 1609607005,
        "symbol": "C_USDT",
        "positionType": 1,
        "positionValue": 1.8192,
        "funding": 0.0045243504,
        "rate": -0.002487,
        "settleTime": 1774627200000
      },
      {
        "id": 1609471052,
        "symbol": "C_USDT",
        "positionType": 1,
        "positionValue": 503.37,
        "funding": 1.41245622,
        "rate": -0.002806,
        "settleTime": 1774623600000
      },
      {
        "id": 1609255124,
        "symbol": "C_USDT",
        "positionType": 1,
        "positionValue": 10.0896,
        "funding": 0.0081624864,
        "rate": -0.000809,
        "settleTime": 1774605600000
      },
      {
        "id": 1609251172,
        "symbol": "SIREN_USDT",
        "positionType": 2,
        "positionValue": 419.688,
        "funding": 0.005036256,
        "rate": 1.2e-05,
        "settleTime": 1774605600000
      },
      {
        "id": 1608068076,
        "symbol": "SIREN_USDT",
        "positionType": 1,
        "positionValue": 1347.28,
        "funding": 3.60262672,
        "rate": -0.002674,
        "settleTime": 1774548000000
      },
      {
        "id": 1593743907,
        "symbol": "PIPPIN_USDT",
        "positionType": 1,
        "positionValue": 315.458,
        "funding": 0.234069836,
        "rate": -0.000742,
        "settleTime": 1773835200000
      },
      {
        "id": 1589141583,
        "symbol": "ETH_USDT",
        "positionType": 2,
        "positionValue": 283.1049,
        "funding": 0.0212328675,
        "rate": 7.5e-05,
        "settleTime": 1773619200000
      },
      {
        "id": 1589120502,
        "symbol": "BTC_USDT",
        "positionType": 2,
        "positionValue": 262.01592,
        "funding": 0.00628838208,
        "rate": 2.4e-05,
        "settleTime": 1773619200000
      },
      {
        "id": 1586058611,
        "symbol": "ETH_USDT",
        "positionType": 2,
        "positionValue": 124.5786,
        "funding": -0.0028653078,
        "rate": -2.3e-05,
        "settleTime": 1773475200000
      },
      {
        "id": 1586034128,
        "symbol": "BTC_USDT",
        "positionType": 2,
        "positionValue": 282.2592,
        "funding": -0.011290368,
        "rate": -4e-05,
        "settleTime": 1773475200000
      },
      {
        "id": 1585481792,
        "symbol": "ETH_USDT",
        "positionType": 2,
        "positionValue": 125.4954,
        "funding": 0.0032628804,
        "rate": 2.6e-05,
        "settleTime": 1773446400000
      },
      {
        "id": 1585459347,
        "symbol": "BTC_USDT",
        "positionType": 2,
        "positionValue": 283.5824,
        "funding": -0.0008507472,
        "rate": -3e-06,
        "settleTime": 1773446400000
      },
      {
        "id": 1563200107,
        "symbol": "STEEM_USDT",
        "positionType": 1,
        "positionValue": 281.3651,
        "funding": 0.2506963041,
        "rate": -0.000891,
        "settleTime": 1772218800000
      },
      {
        "id": 1563191346,
        "symbol": "STEEM_USDT",
        "positionType": 1,
        "positionValue": 281.7355,
        "funding": 0.246800298,
        "rate": -0.000876,
        "settleTime": 1772215200000
      },
      {
        "id": 1563182601,
        "symbol": "STEEM_USDT",
        "positionType": 1,
        "positionValue": 280.6706,
        "funding": 0.2955461418,
        "rate": -0.001053,
        "settleTime": 1772211600000
      },
      {
        "id": 1563118112,
        "symbol": "AVA_USDT",
        "positionType": 1,
        "positionValue": 445.731,
        "funding": -0.02228655,
        "rate": 5e-05,
        "settleTime": 1772208000000
      },
      {
        "id": 1563090010,
        "symbol": "PLAY_USDT",
        "positionType": 1,
        "positionValue": 443.04,
        "funding": -0.022152,
        "rate": 5e-05,
        "settleTime": 1772208000000
      },
      {
        "id": 1563055586,
        "symbol": "CGPT_USDT",
        "positionType": 1,
        "positionValue": 423.9648,
        "funding": 0.1034474112,
        "rate": -0.000244,
        "settleTime": 1772208000000
      },
      {
        "id": 1563035458,
        "symbol": "STEEM_USDT",
        "positionType": 1,
        "positionValue": 282.2448,
        "funding": 0.2972037744,
        "rate": -0.001053,
        "settleTime": 1772208000000
      },
      {
        "id": 1563034745,
        "symbol": "OP_USDT",
        "positionType": 1,
        "positionValue": 1025.5872,
        "funding": 0.0112814592,
        "rate": -1.1e-05,
        "settleTime": 1772208000000
      },
      {
        "id": 1563014607,
        "symbol": "ARB_USDT",
        "positionType": 2,
        "positionValue": 939.502,
        "funding": -0.086434184,
        "rate": -9.2e-05,
        "settleTime": 1772208000000
      },
      {
        "id": 1563014370,
        "symbol": "ARB_USDT",
        "positionType": 1,
        "positionValue": 1098.779,
        "funding": 0.101087668,
        "rate": -9.2e-05,
        "settleTime": 1772208000000
      },
      {
        "id": 1562846651,
        "symbol": "STEEM_USDT",
        "positionType": 1,
        "positionValue": 284.1894,
        "funding": 0.2796423696,
        "rate": -0.000984,
        "settleTime": 1772204400000
      },
      {
        "id": 1562837707,
        "symbol": "STEEM_USDT",
        "positionType": 1,
        "positionValue": 284.8376,
        "funding": 0.15666068,
        "rate": -0.00055,
        "settleTime": 1772200800000
      },
      {
        "id": 1562828672,
        "symbol": "STEEM_USDT",
        "positionType": 1,
        "positionValue": 283.7264,
        "funding": 0.164561312,
        "rate": -0.00058,
        "settleTime": 1772197200000
      },
      {
        "id": 1562813625,
        "symbol": "NFP_USDT",
        "positionType": 1,
        "positionValue": 453.9213,
        "funding": -0.022696065,
        "rate": 5e-05,
        "settleTime": 1772193600000
      },
      {
        "id": 1562812630,
        "symbol": "AVA_USDT",
        "positionType": 1,
        "positionValue": 457.743,
        "funding": -0.02288715,
        "rate": 5e-05,
        "settleTime": 1772193600000
      },
      {
        "id": 1562810472,
        "symbol": "AVAAI_USDT",
        "positionType": 1,
        "positionValue": 229.7295,
        "funding": -0.1284187905,
        "rate": 0.000559,
        "settleTime": 1772193600000
      },
      {
        "id": 1562726069,
        "symbol": "STEEM_USDT",
        "positionType": 1,
        "positionValue": 286.0414,
        "funding": 0.2408468588,
        "rate": -0.000842,
        "settleTime": 1772193600000
      },
      {
        "id": 1562675998,
        "symbol": "STEEM_USDT",
        "positionType": 1,
        "positionValue": 292.7086,
        "funding": 0.2505585616,
        "rate": -0.000856,
        "settleTime": 1772190000000
      },
      {
        "id": 1562668163,
        "symbol": "STEEM_USDT",
        "positionType": 1,
        "positionValue": 293.2179,
        "funding": 0.2891128494,
        "rate": -0.000986,
        "settleTime": 1772186400000
      },
      {
        "id": 1562660204,
        "symbol": "STEEM_USDT",
        "positionType": 1,
        "positionValue": 300.2092,
        "funding": 0.376762546,
        "rate": -0.001255,
        "settleTime": 1772182800000
      },
      {
        "id": 1562505990,
        "symbol": "STEEM_USDT",
        "positionType": 1,
        "positionValue": 299.7462,
        "funding": 0.3719850342,
        "rate": -0.001241,
        "settleTime": 1772179200000
      },
      {
        "id": 1562336933,
        "symbol": "STEEM_USDT",
        "positionType": 1,
        "positionValue": 309.3766,
        "funding": 0.4674680426,
        "rate": -0.001511,
        "settleTime": 1772175600000
      },
      {
        "id": 1562328479,
        "symbol": "STEEM_USDT",
        "positionType": 1,
        "positionValue": 313.1269,
        "funding": 0.5179118926,
        "rate": -0.001654,
        "settleTime": 1772172000000
      },
      {
        "id": 1562320081,
        "symbol": "STEEM_USDT",
        "positionType": 1,
        "positionValue": 315.0252,
        "funding": 0.6004380312,
        "rate": -0.001906,
        "settleTime": 1772168400000
      },
      {
        "id": 1562211172,
        "symbol": "STEEM_USDT",
        "positionType": 1,
        "positionValue": 312.7565,
        "funding": 0.6151920355,
        "rate": -0.001967,
        "settleTime": 1772164800000
      },
      {
        "id": 1562163128,
        "symbol": "STEEM_USDT",
        "positionType": 1,
        "positionValue": 310.9045,
        "funding": 0.656008495,
        "rate": -0.00211,
        "settleTime": 1772161200000
      },
      {
        "id": 1562154516,
        "symbol": "STEEM_USDT",
        "positionType": 1,
        "positionValue": 314.4233,
        "funding": 0.6782110581,
        "rate": -0.002157,
        "settleTime": 1772157600000
      },
      {
        "id": 1562145963,
        "symbol": "STEEM_USDT",
        "positionType": 1,
        "positionValue": 311.7842,
        "funding": 0.9409647156,
        "rate": -0.003018,
        "settleTime": 1772154000000
      },
      {
        "id": 1561986652,
        "symbol": "LTC_USDT",
        "positionType": 2,
        "positionValue": 756.9996,
        "funding": 0.0446629764,
        "rate": 5.9e-05,
        "settleTime": 1772150400000
      },
      {
        "id": 1561984859,
        "symbol": "STEEM_USDT",
        "positionType": 1,
        "positionValue": 349.3335,
        "funding": 0.680501658,
        "rate": -0.001948,
        "settleTime": 1772150400000
      },
      {
        "id": 1561815122,
        "symbol": "STEEM_USDT",
        "positionType": 1,
        "positionValue": 308.821,
        "funding": 0.516348712,
        "rate": -0.001672,
        "settleTime": 1772146800000
      },
      {
        "id": 1561805980,
        "symbol": "STEEM_USDT",
        "positionType": 1,
        "positionValue": 310.7193,
        "funding": 0.5707913541,
        "rate": -0.001837,
        "settleTime": 1772143200000
      },
      {
        "id": 1561796681,
        "symbol": "STEEM_USDT",
        "positionType": 1,
        "positionValue": 306.8764,
        "funding": 0.5490018796,
        "rate": -0.001789,
        "settleTime": 1772139600000
      },
      {
        "id": 1561689436,
        "symbol": "STEEM_USDT",
        "positionType": 1,
        "positionValue": 305.58,
        "funding": 0.6982503,
        "rate": -0.002285,
        "settleTime": 1772136000000
      },
      {
        "id": 1561639229,
        "symbol": "STEEM_USDT",
        "positionType": 1,
        "positionValue": 310.0248,
        "funding": 1.0233918648,
        "rate": -0.003301,
        "settleTime": 1772132400000
      },
      {
        "id": 1561630471,
        "symbol": "STEEM_USDT",
        "positionType": 1,
        "positionValue": 314.1455,
        "funding": 1.1010799775,
        "rate": -0.003505,
        "settleTime": 1772128800000
      },
      {
        "id": 1561621786,
        "symbol": "STEEM_USDT",
        "positionType": 1,
        "positionValue": 300.487,
        "funding": 1.101585342,
        "rate": -0.003666,
        "settleTime": 1772125200000
      },
      {
        "id": 1561482261,
        "symbol": "STEEM_USDT",
        "positionType": 1,
        "positionValue": 294.1902,
        "funding": 1.1035074402,
        "rate": -0.003751,
        "settleTime": 1772121600000
      },
      {
        "id": 1561458693,
        "symbol": "LTC_USDT",
        "positionType": 2,
        "positionValue": 759.4512,
        "funding": -0.0098728656,
        "rate": -1.3e-05,
        "settleTime": 1772121600000
      },
      {
        "id": 1561293626,
        "symbol": "STEEM_USDT",
        "positionType": 1,
        "positionValue": 301.413,
        "funding": 1.15139766,
        "rate": -0.00382,
        "settleTime": 1772118000000
      },
      {
        "id": 1561284050,
        "symbol": "STEEM_USDT",
        "positionType": 1,
        "positionValue": 307.432,
        "funding": 1.185457792,
        "rate": -0.003856,
        "settleTime": 1772114400000
      },
      {
        "id": 1561274918,
        "symbol": "STEEM_USDT",
        "positionType": 1,
        "positionValue": 306.2282,
        "funding": 1.0929284458,
        "rate": -0.003569,
        "settleTime": 1772110800000
      },
      {
        "id": 1561174286,
        "symbol": "STEEM_USDT",
        "positionType": 1,
        "positionValue": 308.1265,
        "funding": 1.297828818,
        "rate": -0.004212,
        "settleTime": 1772107200000
      },
      {
        "id": 1561120525,
        "symbol": "STEEM_USDT",
        "positionType": 1,
        "positionValue": 303.8669,
        "funding": 1.00276077,
        "rate": -0.0033,
        "settleTime": 1772103600000
      },
      {
        "id": 1561111535,
        "symbol": "STEEM_USDT",
        "positionType": 1,
        "positionValue": 291.69,
        "funding": 0.75810231,
        "rate": -0.002599,
        "settleTime": 1772100000000
      },
      {
        "id": 1561103244,
        "symbol": "STEEM_USDT",
        "positionType": 1,
        "positionValue": 294.005,
        "funding": 0.90141933,
        "rate": -0.003066,
        "settleTime": 1772096400000
      },
      {
        "id": 1560966487,
        "symbol": "STEEM_USDT",
        "positionType": 1,
        "positionValue": 285.1154,
        "funding": 1.0865747894,
        "rate": -0.003811,
        "settleTime": 1772092800000
      },
      {
        "id": 1560935806,
        "symbol": "LTC_USDT",
        "positionType": 2,
        "positionValue": 765.5802,
        "funding": -0.0168427644,
        "rate": -2.2e-05,
        "settleTime": 1772092800000
      },
      {
        "id": 1560774756,
        "symbol": "STEEM_USDT",
        "positionType": 1,
        "positionValue": 296.1348,
        "funding": 1.1812817172,
        "rate": -0.003989,
        "settleTime": 1772089200000
      },
      {
        "id": 1560405550,
        "symbol": "LTC_USDT",
        "positionType": 2,
        "positionValue": 772.6626,
        "funding": 0.07726626,
        "rate": 0.0001,
        "settleTime": 1772064000000
      },
      {
        "id": 1559938973,
        "symbol": "ROSE_USDT",
        "positionType": 1,
        "positionValue": 827.52,
        "funding": -0.04882368,
        "rate": 5.9e-05,
        "settleTime": 1772035200000
      },
      {
        "id": 1559872999,
        "symbol": "LTC_USDT",
        "positionType": 2,
        "positionValue": 986.3046,
        "funding": 0.09863046,
        "rate": 0.0001,
        "settleTime": 1772035200000
      },
      {
        "id": 1559561228,
        "symbol": "HYPE_USDT",
        "positionType": 1,
        "positionValue": 864.0378,
        "funding": -0.0319693986,
        "rate": 3.7e-05,
        "settleTime": 1772020800000
      },
      {
        "id": 1559423744,
        "symbol": "ENJ_USDT",
        "positionType": 1,
        "positionValue": 513.25,
        "funding": 0.010265,
        "rate": -2e-05,
        "settleTime": 1772006400000
      },
      {
        "id": 1559392497,
        "symbol": "ROSE_USDT",
        "positionType": 1,
        "positionValue": 814.08,
        "funding": 0.00651264,
        "rate": -8e-06,
        "settleTime": 1772006400000
      },
      {
        "id": 1559339920,
        "symbol": "DAM_USDT",
        "positionType": 1,
        "positionValue": 516.1792,
        "funding": -0.02580896,
        "rate": 5e-05,
        "settleTime": 1772006400000
      },
      {
        "id": 1559327612,
        "symbol": "ETHFI_USDT",
        "positionType": 1,
        "positionValue": 953.784,
        "funding": -0.0476892,
        "rate": 5e-05,
        "settleTime": 1772006400000
      },
      {
        "id": 1559090193,
        "symbol": "DAM_USDT",
        "positionType": 1,
        "positionValue": 495.0336,
        "funding": -0.1084123584,
        "rate": 0.000219,
        "settleTime": 1771992000000
      },
      {
        "id": 1559086975,
        "symbol": "ETHFI_USDT",
        "positionType": 1,
        "positionValue": 952.6608,
        "funding": -0.04763304,
        "rate": 5e-05,
        "settleTime": 1771992000000
      },
      {
        "id": 1558913875,
        "symbol": "ROSE_USDT",
        "positionType": 1,
        "positionValue": 794.88,
        "funding": -0.079488,
        "rate": 0.0001,
        "settleTime": 1771977600000
      },
      {
        "id": 1558862635,
        "symbol": "DAM_USDT",
        "positionType": 1,
        "positionValue": 493.712,
        "funding": -0.356460064,
        "rate": 0.000722,
        "settleTime": 1771977600000
      },
      {
        "id": 1558853984,
        "symbol": "ETHFI_USDT",
        "positionType": 1,
        "positionValue": 931.5072,
        "funding": -0.04657536,
        "rate": 5e-05,
        "settleTime": 1771977600000
      },
      {
        "id": 1558558628,
        "symbol": "DAM_USDT",
        "positionType": 1,
        "positionValue": 483.328,
        "funding": -0.245530624,
        "rate": 0.000508,
        "settleTime": 1771963200000
      },
      {
        "id": 1558554180,
        "symbol": "ETHFI_USDT",
        "positionType": 1,
        "positionValue": 950.04,
        "funding": -0.047502,
        "rate": 5e-05,
        "settleTime": 1771963200000
      },
      {
        "id": 1558022965,
        "symbol": "AZTEC_USDT",
        "positionType": 1,
        "positionValue": 661.753,
        "funding": 0.518152599,
        "rate": -0.000783,
        "settleTime": 1771934400000
      },
      {
        "id": 1558007747,
        "symbol": "TAO_USDT",
        "positionType": 1,
        "positionValue": 1987.2,
        "funding": -0.0337824,
        "rate": 1.7e-05,
        "settleTime": 1771934400000
      },
      {
        "id": 1557769916,
        "symbol": "ADA_USDT",
        "positionType": 1,
        "positionValue": 1416.25,
        "funding": 0.10905125,
        "rate": -7.7e-05,
        "settleTime": 1771920000000
      },
      {
        "id": 1557765289,
        "symbol": "TAO_USDT",
        "positionType": 1,
        "positionValue": 550.056,
        "funding": 0.081958344,
        "rate": -0.000149,
        "settleTime": 1771920000000
      },
      {
        "id": 1557740727,
        "symbol": "SUI_USDT",
        "positionType": 1,
        "positionValue": 1029,
        "funding": -0.008232,
        "rate": 8e-06,
        "settleTime": 1771920000000
      },
      {
        "id": 1557684321,
        "symbol": "ETH_USDT",
        "positionType": 1,
        "positionValue": 3339.2925,
        "funding": 0.1435895775,
        "rate": -4.3e-05,
        "settleTime": 1771920000000
      },
      {
        "id": 1557659695,
        "symbol": "BTC_USDT",
        "positionType": 1,
        "positionValue": 3158.22,
        "funding": 0.03474042,
        "rate": -1.1e-05,
        "settleTime": 1771920000000
      }
    ]
  }
}